# Blender v2.83.1 OBJ File: 'tree_01.blend'
# www.blender.org
mtllib tree_01.mtl
o trunk_01_Cube.001
v -0.552873 0.000286 0.552873
v 0.268524 2.882260 0.501258
v -0.552873 0.000286 -0.552873
v -0.501258 2.882260 0.268524
v 0.552873 0.000286 0.552873
v 0.501258 2.882260 -0.268524
v 0.820231 0.000286 -0.941423
v -0.268524 2.882260 -0.501258
v -1.112902 0.000286 0.000000
v -0.164412 2.882260 0.543802
v 0.781139 0.000286 0.000000
v 0.164412 2.882260 -0.543802
v 0.000000 0.000286 -0.781139
v -0.543802 2.882260 -0.164412
v 0.387259 0.000286 1.136605
v 0.543802 2.882260 0.164412
v 0.000000 2.882260 0.000000
v 0.000000 0.000286 0.000000
v -0.327848 0.806231 0.559853
v -0.086721 1.839837 0.528008
v -0.528008 1.839837 -0.086721
v -0.559853 0.806231 -0.327849
v 0.086721 1.839837 -0.528008
v 0.327849 0.806231 -0.559853
v 0.528008 1.839837 0.086721
v 0.559853 0.806231 0.327849
v 0.434267 1.839837 -0.311741
v 0.627105 0.806231 -0.163896
v -0.434267 1.839837 0.311741
v -0.627104 0.806231 0.163896
v 0.311741 1.839837 0.434267
v 0.163896 0.806231 0.627104
v -0.311741 1.839837 -0.434267
v -0.163896 0.806231 -0.627104
vt 0.541667 0.125000
vt 0.625000 0.125000
vt 0.625000 0.250000
vt 0.541667 0.250000
vt 0.541667 0.375000
vt 0.625000 0.375000
vt 0.625000 0.500000
vt 0.541667 0.500000
vt 0.541667 0.625000
vt 0.625000 0.625000
vt 0.625000 0.750000
vt 0.541667 0.750000
vt 0.541667 0.875000
vt 0.625000 0.875000
vt 0.625000 1.000000
vt 0.541667 1.000000
vt 0.250000 0.625000
vt 0.375000 0.625000
vt 0.375000 0.750000
vt 0.250000 0.750000
vt 0.750000 0.625000
vt 0.875000 0.625000
vt 0.875000 0.750000
vt 0.750000 0.750000
vt 0.750000 0.500000
vt 0.875000 0.500000
vt 0.250000 0.500000
vt 0.375000 0.500000
vt 0.541667 0.000000
vt 0.625000 0.000000
vt 0.125000 0.500000
vt 0.125000 0.625000
vt 0.125000 0.750000
vt 0.375000 0.250000
vt 0.458333 0.250000
vt 0.458333 0.375000
vt 0.375000 0.375000
vt 0.458333 0.750000
vt 0.458333 0.875000
vt 0.375000 0.875000
vt 0.375000 0.000000
vt 0.458333 0.000000
vt 0.458333 0.125000
vt 0.375000 0.125000
vt 0.458333 0.500000
vt 0.458333 0.625000
vt 0.458333 1.000000
vt 0.375000 1.000000
vn -0.8422 -0.0318 0.5382
vn -0.5382 -0.0318 -0.8422
vn 0.8422 -0.0318 -0.5382
vn 0.5382 -0.0318 0.8422
vn 0.0000 -1.0000 -0.0000
vn 0.0000 1.0000 0.0000
vn 0.2172 -0.0310 -0.9756
vn -0.2172 -0.0310 0.9756
vn 0.9756 -0.0310 0.2172
vn -0.9756 -0.0310 -0.2172
vn -0.4803 0.1522 -0.8638
vn -0.7224 0.1030 -0.6838
vn 0.7945 0.3369 0.5053
vn 0.7224 0.1030 0.6838
vn -0.7181 0.2477 0.6503
vn -0.6838 0.1030 0.7224
vn 0.9052 0.3868 -0.1761
vn 0.6838 0.1030 -0.7224
vn -0.3981 0.2734 0.8757
vn 0.0296 0.1025 0.9943
vn 0.9511 0.1517 0.2691
vn 0.9943 0.1025 -0.0296
vn -0.0677 0.2897 -0.9547
vn -0.0296 0.1025 -0.9943
vn -0.8017 0.3543 -0.4814
vn -0.9943 0.1025 0.0296
usemtl Trunk
s off
f 29/1/1 10/2/1 4/3/1 21/4/1
f 33/5/2 14/6/2 8/7/2 23/8/2
f 27/9/3 12/10/3 6/11/3 25/12/3
f 31/13/4 16/14/4 2/15/4 20/16/4
f 18/17/5 11/18/5 5/19/5 15/20/5
f 17/21/6 10/22/6 2/23/6 16/24/6
f 14/25/6 4/26/6 10/22/6 17/21/6
f 13/27/5 7/28/5 11/18/5 18/17/5
f 23/8/7 8/7/7 12/10/7 27/9/7
f 20/29/8 2/30/8 10/2/8 29/1/8
f 3/31/5 13/27/5 18/17/5 9/32/5
f 8/7/6 14/25/6 17/21/6 12/10/6
f 12/10/6 17/21/6 16/24/6 6/11/6
f 9/32/5 18/17/5 15/20/5 1/33/5
f 25/12/9 6/11/9 16/14/9 31/13/9
f 21/4/10 4/3/10 14/6/10 33/5/10
f 3/34/11 22/35/11 34/36/11 13/37/11
f 22/35/12 21/4/12 33/5/12 34/36/12
f 5/19/13 26/38/13 32/39/13 15/40/13
f 26/38/14 25/12/14 31/13/14 32/39/14
f 1/41/15 19/42/15 30/43/15 9/44/15
f 19/42/16 20/29/16 29/1/16 30/43/16
f 7/28/17 24/45/17 28/46/17 11/18/17
f 24/45/18 23/8/18 27/9/18 28/46/18
f 15/40/19 32/39/19 19/47/19 1/48/19
f 32/39/20 31/13/20 20/16/20 19/47/20
f 11/18/21 28/46/21 26/38/21 5/19/21
f 28/46/22 27/9/22 25/12/22 26/38/22
f 13/37/23 34/36/23 24/45/23 7/28/23
f 34/36/24 33/5/24 23/8/24 24/45/24
f 9/44/25 30/43/25 22/35/25 3/34/25
f 30/43/26 29/1/26 21/4/26 22/35/26
o leaf_001_Plane
v -1.989201 1.399402 2.268935
v 2.032551 1.399402 2.268935
v -0.578816 3.614478 -0.180742
v 0.644583 3.524862 -0.180742
v 0.021675 1.399402 2.772271
v 0.021675 3.614478 0.322595
vt 0.500000 0.000000
vt 1.000000 0.000000
vt 1.000000 1.000000
vt 0.500000 1.000000
vt 0.000000 0.000000
vt 0.000000 1.000000
vn 0.2550 0.7585 0.5997
vn -0.2364 0.7536 0.6134
usemtl Leaves
s off
f 39/49/27 36/50/27 38/51/27 40/52/27
f 35/53/28 39/49/28 40/52/28 37/54/28
o leaf_002_Plane.001
v 2.031197 1.306197 2.058513
v 2.005129 1.306197 -1.888050
v -0.221399 3.116180 0.815700
v 0.250072 2.825073 -1.040548
v 2.912141 1.306197 0.182104
v 0.508263 3.489645 -0.289366
vt 0.500000 0.000000
vt 1.000000 0.000000
vt 1.000000 1.000000
vt 0.500000 1.000000
vt 0.000000 0.000000
vt 0.000000 1.000000
vn 0.5865 0.7002 -0.4071
vn 0.5193 0.7672 0.3766
usemtl Leaves
s off
f 45/55/29 42/56/29 44/57/29 46/58/29
f 41/59/30 45/55/30 46/58/30 43/60/30
o leaf_003_Plane.002
v -2.346328 1.526019 -2.115237
v -2.324144 1.526019 1.906455
v 0.107647 2.640623 -1.043419
v 0.121160 2.833315 1.106916
v -2.838565 1.526019 -0.101615
v -0.388925 3.741095 -0.115127
vt 0.500000 0.000000
vt 1.000000 0.000000
vt 1.000000 1.000000
vt 0.500000 1.000000
vt 0.000000 0.000000
vt 0.000000 1.000000
vn -0.4988 0.7802 0.3775
vn -0.4374 0.7841 -0.4403
usemtl Leaves
s off
f 51/61/31 48/62/31 50/63/31 52/64/31
f 47/65/32 51/61/32 52/64/32 49/66/32
o leaf_004_Plane.003
v 1.747909 1.526019 -2.263629
v -2.272759 1.526019 -2.357010
v 0.265594 3.741095 0.167136
v -0.570547 3.651479 0.124233
v -0.250738 1.526019 -2.813520
v -0.307618 3.741095 -0.364504
vt 0.500000 0.000000
vt 1.000000 0.000000
vt 1.000000 1.000000
vt 0.500000 1.000000
vt 0.000000 0.000000
vt 0.000000 1.000000
vn -0.2714 0.7655 -0.5834
vn 0.2544 0.7546 -0.6049
usemtl Leaves
s off
f 57/67/33 54/68/33 56/69/33 58/70/33
f 53/71/34 57/67/34 58/70/34 55/72/34
o leaf_005_Plane.004
v -2.481239 2.600757 0.783586
v 0.351292 2.600757 2.615700
v -0.371948 4.458741 -0.299226
v 0.489695 4.383573 0.258095
v -1.294269 2.600757 2.054144
v -0.178316 4.458741 0.328830
vt 0.500000 0.000000
vt 1.000000 0.000000
vt 1.000000 1.000000
vt 0.500000 1.000000
vt 0.000000 0.000000
vt 0.000000 1.000000
vn -0.1116 0.7585 0.6421
vn -0.5316 0.7536 0.3866
usemtl Leaves
s off
f 63/73/35 60/74/35 62/75/35 64/76/35
f 59/77/36 63/73/36 64/76/36 61/78/36
o leaf_006_Plane.005
v 0.446196 2.522577 2.466881
v 2.225698 2.522577 -0.324569
v -0.574148 4.040773 0.565392
v 0.603526 3.796595 -0.527189
v 1.921448 2.522577 1.546637
v 0.443169 4.354032 0.119489
vt 0.500000 0.000000
vt 1.000000 0.000000
vt 1.000000 1.000000
vt 0.500000 1.000000
vt 0.000000 0.000000
vt 0.000000 1.000000
vn 0.7136 0.7002 -0.0233
vn 0.2315 0.7672 0.5982
usemtl Leaves
s off
f 69/79/37 66/80/37 68/81/37 70/82/37
f 65/83/38 69/79/38 70/82/38 67/84/38
o leaf_007_Plane.006
v -0.735553 2.706962 -2.466889
v -2.552013 2.706962 0.375706
v 0.504522 3.641881 -0.594094
v -0.465548 3.803509 0.926549
v -1.999543 2.706962 -1.272928
v -0.268099 4.564946 -0.166509
vt 0.500000 0.000000
vt 1.000000 0.000000
vt 1.000000 1.000000
vt 0.500000 1.000000
vt 0.000000 0.000000
vt 0.000000 1.000000
vn -0.6238 0.7802 0.0461
vn -0.1281 0.7841 -0.6073
usemtl Leaves
s off
f 75/85/39 72/86/39 74/87/39 76/88/39
f 71/89/40 75/85/40 76/88/40 73/90/40
o leaf_008_Plane.007
v 2.215631 2.706962 -0.706268
v -0.573596 2.706962 -2.603657
v 0.064295 4.564946 0.330457
v -0.505057 4.489778 -0.080665
v 1.058482 2.706962 -2.004044
v -0.097230 4.564946 -0.305106
vt 0.500000 0.000000
vt 1.000000 0.000000
vt 1.000000 1.000000
vt 0.500000 1.000000
vt 0.000000 0.000000
vt 0.000000 1.000000
vn 0.0890 0.7655 -0.6372
vn 0.5421 0.7546 -0.3697
usemtl Leaves
s off
f 81/91/41 78/92/41 80/93/41 82/94/41
f 77/95/42 81/91/42 82/94/42 79/96/42
o leaf_009_Plane.008
v -1.831989 3.575279 1.518985
v 1.199319 3.575279 2.072333
v -0.431894 5.272433 -0.133352
v 0.490216 5.203771 0.034974
v -0.385589 3.575279 2.175038
v -0.048540 5.272433 0.328647
vt 0.500000 0.000000
vt 1.000000 0.000000
vt 1.000000 1.000000
vt 0.500000 1.000000
vt 0.000000 0.000000
vt 0.000000 1.000000
vn 0.1432 0.7585 0.6358
vn -0.3427 0.7536 0.5609
usemtl Leaves
s off
f 87/97/43 84/98/43 86/99/43 88/100/43
f 83/101/44 87/97/44 88/100/44 85/102/44
o leaf_010_Plane.009
v 1.227252 3.503867 1.913546
v 1.750607 3.503867 -1.064677
v -0.299596 4.890646 0.666870
v 0.311164 4.667604 -0.667367
v 2.149417 3.503867 0.620452
v 0.402415 5.176788 -0.065656
vt 0.500000 0.000000
vt 1.000000 0.000000
vt 1.000000 1.000000
vt 0.500000 1.000000
vt 0.000000 0.000000
vt 0.000000 1.000000
vn 0.6501 0.7002 -0.2952
vn 0.4432 0.7672 0.4637
usemtl Leaves
s off
f 93/103/45 90/104/45 92/105/45 94/106/45
f 89/107/46 93/103/46 94/106/46 91/108/46
o leaf_011_Plane.010
v -1.497954 3.672291 -1.834626
v -2.034572 3.672291 1.199690
v 0.204208 4.526282 -0.689128
v -0.081469 4.673919 0.933500
v -2.146018 3.672291 -0.384628
v -0.297795 5.369445 -0.057770
vt 0.500000 0.000000
vt 1.000000 0.000000
vt 1.000000 1.000000
vt 0.500000 1.000000
vt 0.000000 0.000000
vt 0.000000 1.000000
vn -0.5584 0.7802 0.2818
vn -0.3512 0.7841 -0.5117
usemtl Leaves
s off
f 99/109/47 96/110/47 98/111/47 100/112/47
f 95/113/48 99/109/48 100/112/48 97/114/48
o leaf_012_Plane.011
v 1.608408 3.672291 -1.383153
v -1.409235 3.672291 -2.006736
v 0.156699 5.369445 0.245034
v -0.467621 5.300783 0.097653
v 0.177630 3.672291 -2.072613
v -0.202199 5.369445 -0.234546
vt 0.500000 0.000000
vt 1.000000 0.000000
vt 1.000000 1.000000
vt 0.500000 1.000000
vt 0.000000 0.000000
vt 0.000000 1.000000
vn -0.1622 0.7655 -0.6226
vn 0.3588 0.7546 -0.5493
usemtl Leaves
s off
f 105/115/49 102/116/49 104/117/49 106/118/49
f 101/119/50 105/115/50 106/118/50 103/120/50
o leaf_013_Plane.012
v -0.908922 4.555567 -1.697273
v -1.919169 4.555567 0.631123
v 0.155037 5.953494 -0.265382
v -0.152275 5.896938 0.442906
v -1.705452 4.555567 -0.659511
v -0.287210 5.953494 -0.044163
vt 0.500000 0.000000
vt 1.000000 0.000000
vt 1.000000 1.000000
vt 0.500000 1.000000
vt 0.000000 0.000000
vt 0.000000 1.000000
vn -0.6517 0.7585 -0.0047
vn -0.4686 0.7536 -0.4610
usemtl Leaves
s off
f 111/121/51 108/122/51 110/123/51 112/124/51
f 107/125/52 111/121/52 112/124/52 109/126/52
o leaf_014_Plane.013
v -1.797003 4.496746 0.683197
v 0.494410 4.496746 1.659464
v -0.511634 5.639020 -0.308756
v 0.444610 5.455303 0.430484
v -0.931945 4.496746 1.664565
v -0.055143 5.874712 0.391270
vt 0.500000 0.000000
vt 1.000000 0.000000
vt 1.000000 1.000000
vt 0.500000 1.000000
vt 0.000000 0.000000
vt 0.000000 1.000000
vn 0.1401 0.7002 0.7001
vn -0.5522 0.7672 0.3265
usemtl Leaves
s off
f 117/127/53 114/128/53 116/129/53 118/130/53
f 113/131/54 117/127/54 118/130/54 115/132/54
o leaf_015_Plane.014
v 1.719008 4.635475 -0.802748
v -0.614926 4.635475 -1.800134
v 0.482051 5.338898 0.348748
v -0.766282 5.460505 -0.183583
v 0.676867 4.635475 -1.593541
v 0.069352 6.033402 -0.171926
vt 0.500000 0.000000
vt 1.000000 0.000000
vt 1.000000 1.000000
vt 0.500000 1.000000
vt 0.000000 0.000000
vt 0.000000 1.000000
vn -0.1478 0.7802 -0.6078
vn 0.5780 0.7841 -0.2260
usemtl Leaves
s off
f 123/133/55 120/134/55 122/135/55 124/136/55
f 119/137/56 123/133/56 124/136/56 121/138/56
o leaf_016_Plane.015
v 0.776464 4.635475 1.604889
v 1.840500 4.635475 -0.699422
v -0.258479 6.033402 0.136105
v -0.023605 5.976846 -0.337203
v 1.596874 4.635475 0.585901
v 0.193303 6.033402 -0.062211
vt 0.500000 0.000000
vt 1.000000 0.000000
vt 1.000000 1.000000
vt 0.500000 1.000000
vt 0.000000 0.000000
vt 0.000000 1.000000
vn 0.6432 0.7655 -0.0167
vn 0.4536 0.7546 0.4741
usemtl Leaves
s off
f 129/139/57 126/140/57 128/141/57 130/142/57
f 125/143/58 129/139/58 130/142/58 127/144/58
o leaf_017_Plane.016
v 0.710683 5.258250 -1.751399
v -1.719968 5.258250 -1.020672
v 0.303371 6.656177 -0.014615
v -0.436022 6.599620 0.207669
v -0.596095 5.258250 -1.690240
v -0.151004 6.656177 -0.209714
vt 0.500000 0.000000
vt 1.000000 0.000000
vt 1.000000 1.000000
vt 0.500000 1.000000
vt 0.000000 0.000000
vt 0.000000 1.000000
vn -0.4169 0.7585 -0.5009
vn 0.0498 0.7536 -0.6555
usemtl Leaves
s off
f 135/145/59 132/146/59 134/147/59 136/148/59
f 131/149/60 135/145/60 136/148/60 133/150/60
o leaf_018_Plane.017
v -1.680918 5.199429 -0.893743
v -0.948096 5.199429 1.486728
v -0.093691 6.341702 -0.551899
v -0.041368 6.157986 0.655635
v -1.872407 5.199429 0.400375
v -0.333897 6.577395 0.248551
vt 0.500000 0.000000
vt 1.000000 0.000000
vt 1.000000 1.000000
vt 0.500000 1.000000
vt 0.000000 0.000000
vt 0.000000 1.000000
vn -0.4444 0.7002 0.5588
vn -0.6057 0.7672 -0.2112
usemtl Leaves
s off
f 141/151/61 138/152/61 140/153/61 142/154/61
f 137/155/62 141/151/62 142/154/62 139/156/62
o leaf_019_Plane.018
v 1.723099 5.338158 0.833402
v 0.978973 5.338158 -1.593181
v 0.045232 6.041580 0.631494
v -0.353638 6.163188 -0.665662
v 1.654731 5.338158 -0.473020
v 0.176683 6.736084 -0.019768
vt 0.500000 0.000000
vt 1.000000 0.000000
vt 1.000000 1.000000
vt 0.500000 1.000000
vt 0.000000 0.000000
vt 0.000000 1.000000
vn 0.3690 0.7802 -0.5051
vn 0.5456 0.7841 0.2957
usemtl Leaves
s off
f 147/157/63 144/158/63 146/159/63 148/160/63
f 143/161/64 147/157/64 148/160/64 145/162/64
o leaf_020_Plane.019
v -0.724398 5.338158 1.666984
v 1.722565 5.338158 0.992891
v -0.270177 6.736084 -0.071440
v 0.242962 6.679528 -0.197432
v 0.583449 5.338158 1.636184
v 0.172854 6.736084 0.145722
vt 0.500000 0.000000
vt 1.000000 0.000000
vt 1.000000 1.000000
vt 0.500000 1.000000
vt 0.000000 0.000000
vt 0.000000 1.000000
vn 0.4278 0.7655 0.4806
vn -0.0694 0.7546 0.6525
usemtl Leaves
s off
f 153/163/65 150/164/65 152/165/65 154/166/65
f 149/167/66 153/163/66 154/166/66 151/168/66
o leaf_021_Plane.020
v -1.304213 6.066062 -0.698007
v -0.967302 6.066062 1.188985
v -0.036682 7.121803 -0.241474
v 0.065805 7.079091 0.332540
v -1.371921 6.066062 0.287655
v -0.222541 7.121803 0.082440
vt 0.500000 0.000000
vt 1.000000 0.000000
vt 1.000000 1.000000
vt 0.500000 1.000000
vt 0.000000 0.000000
vt 0.000000 1.000000
vn -0.5456 0.7585 0.3565
vn -0.6454 0.7536 -0.1250
usemtl Leaves
s off
f 159/169/67 156/170/67 158/171/67 160/172/67
f 155/173/68 159/169/68 160/172/68 157/174/68
o leaf_022_Plane.021
v -0.868685 6.021639 1.170723
v 0.980843 6.021639 0.827879
v -0.474267 6.884306 0.009700
v 0.436173 6.745560 0.075410
v 0.085517 6.021639 1.426868
v 0.105351 7.062305 0.259481
vt 0.500000 0.000000
vt 1.000000 0.000000
vt 1.000000 1.000000
vt 0.500000 1.000000
vt 0.000000 0.000000
vt 0.000000 1.000000
vn 0.5039 0.7002 0.5058
vn -0.2795 0.7672 0.5774
usemtl Leaves
s off
f 165/175/69 162/176/69 164/177/69 166/178/69
f 161/179/70 165/175/70 166/178/70 163/180/70
o leaf_023_Plane.022
v 0.722907 6.126410 -1.232841
v -1.162197 6.126410 -0.885525
v 0.425590 6.657648 0.008344
v -0.582207 6.749488 0.194823
v -0.263113 6.126410 -1.295110
v -0.051560 7.182151 -0.146881
vt 0.500000 0.000000
vt 1.000000 0.000000
vt 1.000000 1.000000
vt 0.500000 1.000000
vt 0.000000 0.000000
vt 0.000000 1.000000
vn -0.4593 0.7802 -0.4246
vn 0.3566 0.7841 -0.5080
usemtl Leaves
s off
f 171/181/71 168/182/71 170/183/71 172/184/71
f 167/185/72 171/181/72 172/184/72 169/186/72
o leaf_024_Plane.023
v 1.135515 6.126410 0.675729
v 0.842509 6.126410 -1.218576
v -0.129168 7.182151 0.183863
v -0.179083 7.139439 -0.212045
v 1.226091 6.126410 -0.308094
v 0.072257 7.182151 -0.129622
vt 0.500000 0.000000
vt 1.000000 0.000000
vt 1.000000 1.000000
vt 0.500000 1.000000
vt 0.000000 0.000000
vt 0.000000 1.000000
vn 0.5266 0.7655 -0.3697
vn 0.6401 0.7546 0.1441
usemtl Leaves
s off
f 177/187/73 174/188/73 176/189/73 178/190/73
f 173/191/74 177/187/74 178/190/74 175/192/74
o leaf_025_Plane.024
v -1.059433 6.787806 -0.558943
v -0.787799 6.787806 0.962441
v -0.037488 7.638996 -0.190865
v 0.045142 7.604559 0.271934
v -1.114022 6.787806 0.235745
v -0.187336 7.638996 0.070291
vt 0.500000 0.000000
vt 1.000000 0.000000
vt 1.000000 1.000000
vt 0.500000 1.000000
vt 0.000000 0.000000
vt 0.000000 1.000000
vn -0.5456 0.7585 0.3565
vn -0.6454 0.7536 -0.1250
usemtl Leaves
s off
f 183/193/75 180/194/75 182/195/75 184/196/75
f 179/197/76 183/193/76 184/196/76 181/198/76
o leaf_026_Plane.025
v -0.708287 6.751990 0.947717
v 0.782892 6.751990 0.671300
v -0.390288 7.447515 0.011644
v 0.343753 7.335650 0.064623
v 0.061037 6.751990 1.154234
v 0.077028 7.591026 0.213030
vt 0.500000 0.000000
vt 1.000000 0.000000
vt 1.000000 1.000000
vt 0.500000 1.000000
vt 0.000000 0.000000
vt 0.000000 1.000000
vn 0.5039 0.7002 0.5058
vn -0.2795 0.7672 0.5774
usemtl Leaves
s off
f 189/199/77 186/200/77 188/201/77 190/202/77
f 185/203/78 189/199/78 190/202/78 187/204/78
o leaf_027_Plane.026
v 0.574930 6.746795 -0.986303
v -0.944933 6.768458 -0.707118
v 0.335219 7.251238 -0.021733
v -0.477316 7.336694 0.122437
v -0.220047 6.742910 -1.036356
v -0.049483 7.663168 -0.179223
vt 0.500000 0.000000
vt 1.000000 0.000000
vt 1.000000 1.000000
vt 0.500000 1.000000
vt 0.000000 0.000000
vt 0.000000 1.000000
vn -0.4593 0.7450 -0.4837
vn 0.3566 0.7424 -0.5671
usemtl Leaves
s off
f 195/205/79 192/206/79 194/207/79 196/208/79
f 191/209/80 195/205/80 196/208/80 193/210/80
o leaf_028_Plane.027
v 0.907596 6.836462 0.548629
v 0.671360 6.836462 -0.978652
v -0.112052 7.687651 0.152063
v -0.152297 7.653214 -0.167138
v 0.980623 6.836462 -0.244577
v 0.050346 7.687651 -0.100684
vt 0.500000 0.000000
vt 1.000000 0.000000
vt 1.000000 1.000000
vt 0.500000 1.000000
vt 0.000000 0.000000
vt 0.000000 1.000000
vn 0.5266 0.7655 -0.3697
vn 0.6401 0.7546 0.1441
usemtl Leaves
s off
f 201/211/81 198/212/81 200/213/81 202/214/81
f 197/215/82 201/211/82 202/214/82 199/216/82
o leaf_029_Plane.028
v -0.852579 7.361564 -0.473707
v -0.621259 7.373423 0.823586
v -0.096857 8.127072 -0.064894
v -0.058224 8.099650 0.142473
v -0.899067 7.359181 0.203928
v -0.052246 8.129359 0.015369
vt 0.500000 0.000000
vt 1.000000 0.000000
vt 1.000000 1.000000
vt 0.500000 1.000000
vt 0.000000 0.000000
vt 0.000000 1.000000
vn -0.6306 0.7364 0.2448
vn -0.6918 0.7221 -0.0016
usemtl Leaves
s off
f 207/217/83 204/218/83 206/219/83 208/220/83
f 203/221/84 207/217/84 208/220/84 205/222/84
o leaf_030_Plane.029
v -0.600678 7.350341 0.699973
v 0.670860 7.376809 0.465762
v -0.136835 8.029299 -0.026574
v 0.129360 7.929442 0.007604
v 0.055329 7.330566 0.874957
v -0.047908 8.140345 0.080549
vt 0.500000 0.000000
vt 1.000000 0.000000
vt 1.000000 1.000000
vt 0.500000 1.000000
vt 0.000000 0.000000
vt 0.000000 1.000000
vn 0.4685 0.7078 0.5287
vn -0.3229 0.7135 0.6218
usemtl Leaves
s off
f 213/223/85 210/224/85 212/225/85 214/226/85
f 209/227/86 213/223/86 214/226/86 211/228/86
o leaf_031_Plane.030
v 0.477128 7.342746 -0.796575
v -0.818868 7.371049 -0.559480
v 0.272725 7.806539 0.007425
v -0.277263 7.884429 0.127240
v -0.200754 7.337672 -0.839082
v -0.055313 8.116046 -0.013038
vt 0.500000 0.000000
vt 1.000000 0.000000
vt 1.000000 1.000000
vt 0.500000 1.000000
vt 0.000000 0.000000
vt 0.000000 1.000000
vn -0.4190 0.7756 -0.4720
vn 0.2694 0.7706 -0.5775
usemtl Leaves
s off
f 219/229/87 216/230/87 218/231/87 220/232/87
f 215/233/88 219/229/88 220/232/88 217/234/88
o leaf_032_Plane.031
v 0.702978 7.344934 0.475496
v 0.502400 7.363546 -0.826825
v -0.056306 8.144323 0.060414
v -0.071303 8.116225 -0.016593
v 0.764982 7.339180 -0.200875
v -0.052358 8.143957 0.016774
vt 0.500000 0.000000
vt 1.000000 0.000000
vt 1.000000 1.000000
vt 0.500000 1.000000
vt 0.000000 0.000000
vt 0.000000 1.000000
vn 0.6229 0.7343 -0.2697
vn 0.7083 0.7034 0.0589
usemtl Leaves
s off
f 225/235/89 222/236/89 224/237/89 226/238/89
f 221/239/90 225/235/90 226/238/90 223/240/90
