# Blender MTL File: 'tree_01.blend'
# Material Count: 2

newmtl Leaves
Ns 323.999994
Ka 1.000000 1.000000 1.000000
Kd 0.076256 0.393114 0.174109
Ks 0.500000 0.500000 0.500000
Ke 0.000000 0.000000 0.000000
Ni 1.450000
d 1.000000
illum 2

newmtl Trunk
Ns 225.000000
Ka 1.000000 1.000000 1.000000
Kd 0.800000 0.119831 0.034924
Ks 0.500000 0.500000 0.500000
Ke 0.000000 0.000000 0.000000
Ni 1.450000
d 1.000000
illum 2
