# Blender MTL File: 'wizard.blend'
# Material Count: 6

newmtl Cape
Ns 225.000000
Ka 1.000000 1.000000 1.000000
Kd 0.800000 0.057783 0.000000
Ks 0.500000 0.500000 0.500000
Ke 0.000000 0.000000 0.000000
Ni 1.450000
d 1.000000
illum 2

newmtl Color_1
Ns 225.000000
Ka 1.000000 1.000000 1.000000
Kd 0.000000 0.000000 0.000000
Ks 0.500000 0.500000 0.500000
Ke 0.000000 0.000000 0.000000
Ni 1.450000
d 1.000000
illum 2

newmtl Color_2
Ns 225.000000
Ka 1.000000 1.000000 1.000000
Kd 1.000000 1.000000 1.000000
Ks 0.500000 0.500000 0.500000
Ke 0.000000 0.000000 0.000000
Ni 1.450000
d 1.000000
illum 2

newmtl Eyes
Ns 225.000000
Ka 1.000000 1.000000 1.000000
Kd 0.004979 0.003834 0.037410
Ks 0.500000 0.500000 0.500000
Ke 0.000000 0.000000 0.000000
Ni 1.450000
d 1.000000
illum 2

newmtl Hair
Ns 225.000000
Ka 1.000000 1.000000 1.000000
Kd 0.570471 0.570471 0.570471
Ks 0.500000 0.500000 0.500000
Ke 0.000000 0.000000 0.000000
Ni 1.450000
d 1.000000
illum 2

newmtl Skin
Ns 225.000000
Ka 1.000000 1.000000 1.000000
Kd 0.799103 0.351856 0.066546
Ks 0.500000 0.500000 0.500000
Ke 0.000000 0.000000 0.000000
Ni 1.450000
d 1.000000
illum 2
