%YAML 1.1
%TAG !u! tag:unity3d.com,2011:
--- !u!1 &7914829875184405820
GameObject:
  m_ObjectHideFlags: 0
  m_CorrespondingSourceObject: {fileID: 0}
  m_PrefabInstance: {fileID: 0}
  m_PrefabAsset: {fileID: 0}
  serializedVersion: 6
  m_Component:
  - component: {fileID: 7914829875184405823}
  - component: {fileID: 7914829875184405822}
  - component: {fileID: 7914829875184405821}
  - component: {fileID: 7967028952757653315}
  m_Layer: 10
  m_Name: Diamant
  m_TagString: Ingredient
  m_Icon: {fileID: 0}
  m_NavMeshLayer: 0
  m_StaticEditorFlags: 0
  m_IsActive: 1
--- !u!4 &7914829875184405823
Transform:
  m_ObjectHideFlags: 0
  m_CorrespondingSourceObject: {fileID: 0}
  m_PrefabInstance: {fileID: 0}
  m_PrefabAsset: {fileID: 0}
  m_GameObject: {fileID: 7914829875184405820}
  m_LocalRotation: {x: 0.38288495, y: 0, z: 0, w: 0.9237961}
  m_LocalPosition: {x: -1749, y: 206.04, z: -990}
  m_LocalScale: {x: 12, y: 12, z: 12}
  m_Children:
  - {fileID: 2639443135140342537}
  m_Father: {fileID: 0}
  m_RootOrder: 0
  m_LocalEulerAnglesHint: {x: 45.025, y: 0, z: 0}
--- !u!212 &7914829875184405822
SpriteRenderer:
  m_ObjectHideFlags: 0
  m_CorrespondingSourceObject: {fileID: 0}
  m_PrefabInstance: {fileID: 0}
  m_PrefabAsset: {fileID: 0}
  m_GameObject: {fileID: 7914829875184405820}
  m_Enabled: 1
  m_CastShadows: 0
  m_ReceiveShadows: 0
  m_DynamicOccludee: 1
  m_MotionVectors: 1
  m_LightProbeUsage: 1
  m_ReflectionProbeUsage: 1
  m_RayTracingMode: 0
  m_RenderingLayerMask: 1
  m_RendererPriority: 0
  m_Materials:
  - {fileID: 10754, guid: 0000000000000000f000000000000000, type: 0}
  m_StaticBatchInfo:
    firstSubMesh: 0
    subMeshCount: 0
  m_StaticBatchRoot: {fileID: 0}
  m_ProbeAnchor: {fileID: 0}
  m_LightProbeVolumeOverride: {fileID: 0}
  m_ScaleInLightmap: 1
  m_ReceiveGI: 1
  m_PreserveUVs: 0
  m_IgnoreNormalsForChartDetection: 0
  m_ImportantGI: 0
  m_StitchLightmapSeams: 1
  m_SelectedEditorRenderState: 0
  m_MinimumChartSize: 4
  m_AutoUVMaxDistance: 0.5
  m_AutoUVMaxAngle: 89
  m_LightmapParameters: {fileID: 0}
  m_SortingLayerID: 0
  m_SortingLayer: 0
  m_SortingOrder: 0
  m_Sprite: {fileID: 21300000, guid: 030fb504dd0a5e241a07642f7b52e1a1, type: 3}
  m_Color: {r: 1, g: 1, b: 1, a: 1}
  m_FlipX: 0
  m_FlipY: 0
  m_DrawMode: 0
  m_Size: {x: 2.56, y: 2.56}
  m_AdaptiveModeThreshold: 0.5
  m_SpriteTileMode: 0
  m_WasSpriteAssigned: 1
  m_MaskInteraction: 0
  m_SpriteSortPoint: 0
--- !u!135 &7914829875184405821
SphereCollider:
  m_ObjectHideFlags: 0
  m_CorrespondingSourceObject: {fileID: 0}
  m_PrefabInstance: {fileID: 0}
  m_PrefabAsset: {fileID: 0}
  m_GameObject: {fileID: 7914829875184405820}
  m_Material: {fileID: 0}
  m_IsTrigger: 1
  m_Enabled: 1
  serializedVersion: 2
  m_Radius: 1.28
  m_Center: {x: 0, y: 0, z: 0}
--- !u!114 &7967028952757653315
MonoBehaviour:
  m_ObjectHideFlags: 0
  m_CorrespondingSourceObject: {fileID: 0}
  m_PrefabInstance: {fileID: 0}
  m_PrefabAsset: {fileID: 0}
  m_GameObject: {fileID: 7914829875184405820}
  m_Enabled: 1
  m_EditorHideFlags: 0
  m_Script: {fileID: 11500000, guid: 3d6de31a1b6ea441f9d7b43672538ed1, type: 3}
  m_Name: 
  m_EditorClassIdentifier: 
--- !u!1001 &7914829875004464879
PrefabInstance:
  m_ObjectHideFlags: 0
  serializedVersion: 2
  m_Modification:
    m_TransformParent: {fileID: 7914829875184405823}
    m_Modifications:
    - target: {fileID: 5293471576193791461, guid: df92ab95684bed1408c15a757a47c608,
        type: 3}
      propertyPath: m_Name
      value: FireflyParticle
      objectReference: {fileID: 0}
    - target: {fileID: 5293471576193791462, guid: df92ab95684bed1408c15a757a47c608,
        type: 3}
      propertyPath: m_LocalPosition.x
      value: 0
      objectReference: {fileID: 0}
    - target: {fileID: 5293471576193791462, guid: df92ab95684bed1408c15a757a47c608,
        type: 3}
      propertyPath: m_LocalPosition.y
      value: 0
      objectReference: {fileID: 0}
    - target: {fileID: 5293471576193791462, guid: df92ab95684bed1408c15a757a47c608,
        type: 3}
      propertyPath: m_LocalPosition.z
      value: 0
      objectReference: {fileID: 0}
    - target: {fileID: 5293471576193791462, guid: df92ab95684bed1408c15a757a47c608,
        type: 3}
      propertyPath: m_LocalRotation.x
      value: -0.7071068
      objectReference: {fileID: 0}
    - target: {fileID: 5293471576193791462, guid: df92ab95684bed1408c15a757a47c608,
        type: 3}
      propertyPath: m_LocalRotation.y
      value: 0
      objectReference: {fileID: 0}
    - target: {fileID: 5293471576193791462, guid: df92ab95684bed1408c15a757a47c608,
        type: 3}
      propertyPath: m_LocalRotation.z
      value: 0
      objectReference: {fileID: 0}
    - target: {fileID: 5293471576193791462, guid: df92ab95684bed1408c15a757a47c608,
        type: 3}
      propertyPath: m_LocalRotation.w
      value: 0.7071068
      objectReference: {fileID: 0}
    - target: {fileID: 5293471576193791462, guid: df92ab95684bed1408c15a757a47c608,
        type: 3}
      propertyPath: m_RootOrder
      value: 0
      objectReference: {fileID: 0}
    - target: {fileID: 5293471576193791462, guid: df92ab95684bed1408c15a757a47c608,
        type: 3}
      propertyPath: m_LocalEulerAnglesHint.x
      value: -90
      objectReference: {fileID: 0}
    - target: {fileID: 5293471576193791462, guid: df92ab95684bed1408c15a757a47c608,
        type: 3}
      propertyPath: m_LocalEulerAnglesHint.y
      value: 0
      objectReference: {fileID: 0}
    - target: {fileID: 5293471576193791462, guid: df92ab95684bed1408c15a757a47c608,
        type: 3}
      propertyPath: m_LocalEulerAnglesHint.z
      value: 0
      objectReference: {fileID: 0}
    m_RemovedComponents: []
  m_SourcePrefab: {fileID: 100100000, guid: df92ab95684bed1408c15a757a47c608, type: 3}
--- !u!4 &2639443135140342537 stripped
Transform:
  m_CorrespondingSourceObject: {fileID: 5293471576193791462, guid: df92ab95684bed1408c15a757a47c608,
    type: 3}
  m_PrefabInstance: {fileID: 7914829875004464879}
  m_PrefabAsset: {fileID: 0}
